…
To get just the text inside the element nodes we use `html_text`, with `trim = TRUE` to clean up whitespace characters.

``` r
ewn_text <- html_text(ewn_elements, trim = TRUE)
as.tibble(ewn_text)
```

    ## # A tibble: 44 x 1
    ##                                                                         value
    ##                                                                         <chr>
    ##  1                                                                      Video
    ##  2                                                                      Audio
    ##  3                                                               Infographics
    ##  4                                                                   Cartoons
    ##  5               Robert Mugabe heading to SA over assault claims against wife
    ##  6 Ex-cop's claim that Timol died in the afternoon contradicts prior evidence
    ##  7                        Pretoria CBD cleared following taxi drivers<U+0092> strike
    ##  8         #VoteOfNoConfidence: 'There's no way of identifying how MPs voted'
    ##  9                         UWC highlights entrepreneurship as a career option
    ## 10  Pupils to get counselling after learner killed in gang violence crossfire
    ## # ... with 34 more rows
…
